\relax 
\providecommand\hyper@newdestlabel[2]{}
\providecommand\HyperFirstAtBeginDocument{\AtBeginDocument}
\HyperFirstAtBeginDocument{\ifx\hyper@anchor\@undefined
\global\let\oldcontentsline\contentsline
\gdef\contentsline#1#2#3#4{\oldcontentsline{#1}{#2}{#3}}
\global\let\oldnewlabel\newlabel
\gdef\newlabel#1#2{\newlabelxx{#1}#2}
\gdef\newlabelxx#1#2#3#4#5#6{\oldnewlabel{#1}{{#2}{#3}}}
\AtEndDocument{\ifx\hyper@anchor\@undefined
\let\contentsline\oldcontentsline
\let\newlabel\oldnewlabel
\fi}
\fi}
\global\let\hyper@last\relax 
\gdef\HyperFirstAtBeginDocument#1{#1}
\providecommand\HyField@AuxAddToFields[1]{}
\providecommand\HyField@AuxAddToCoFields[2]{}
\select@language{english}
\@writefile{toc}{\select@language{english}}
\@writefile{lof}{\select@language{english}}
\@writefile{lot}{\select@language{english}}
\citation{braconnot07pmip1}
\citation{Goni99aa}
\citation{crucifix02aa}
\citation{Tuenter03aa}
\citation{crucifix02aa}
\citation{Tuenter03aa}
\@writefile{toc}{\contentsline {section}{\numberline {1}Introduction}{3}{section.1}}
\citation{Homma96aa,Saltelli04aa}
\citation{Goosse10aa}
\citation{noblet96,claussen99,crucifix02aa,Kageyama04aa,Meissner03aa}
\citation{Lee11aa}
\citation{Lee13aa,Carslaw13aa}
\citation{Lee11aa}
\citation{Oakley04ab}
\citation{Rougier09aa,Holden10aa,Schmittner11aa}
\citation{Loutre93aa}
\@writefile{toc}{\contentsline {section}{\numberline {2}Methodology}{5}{section.2}}
\@writefile{toc}{\contentsline {subsection}{\numberline {2.1}Choice of input factors}{5}{subsection.2.1}}
\citation{berger78,Laskar04}
\citation{berger78}
\citation{Laskar04}
\citation{Goosse10aa}
\citation{santner03}
\citation{Sacks89aa}
\citation{McKay79aa,Morris95aa,Urban10aa}
\citation{Joseph08aa}
\citation{Carnell12aa}
\citation{vernon2010}
\citation{Draguljic12aa}
\citation{vernon2010}
\citation{Loeppky09aa}
\@writefile{toc}{\contentsline {subsection}{\numberline {2.2}Experiment design}{6}{subsection.2.2}}
\citation{brovkin97}
\citation{Brovkin98aa}
\citation{opsteegh98}
\citation{Cumming09aa}
\citation{berger78,Laskar04}
\citation{Saltelli04aa}
\@writefile{toc}{\contentsline {subsection}{\numberline {2.3}Global variance measures}{8}{subsection.2.3}}
\citation{Homma96aa}
\citation{Saltelli04aa}
\citation{Oakley04ab}
\citation{Oakley04ab}
\newlabel{eq:main_effect}{{4}{9}{Global variance measures}{equation.2.4}{}}
\citation{stein93,Alpert11aa}
\citation{crucifix02aa,ganopolski98a,Claussen09aa,Braconnot99aa,berger99,Henrot10aa,Wohlfahrt06mh}
\newlabel{eq:mean}{{5}{10}{Global variance measures}{equation.2.5}{}}
\newlabel{eq:variance}{{6}{10}{Global variance measures}{equation.2.5}{}}
\newlabel{eq:eqVi}{{7}{10}{Global variance measures}{equation.2.7}{}}
\newlabel{eq:eqV}{{11}{10}{Global variance measures}{equation.2.11}{}}
\citation{Lee11aa}
\citation{Rougier08ab}
\citation{Fricker2013aa}
\citation{Higdon08aa,Wilkinson10aa}
\citation{Wilkinson10aa}
\citation{Silverman96aa}
\newlabel{sect:emul}{{2.4}{11}{Emulator}{subsection.2.4}{}}
\@writefile{toc}{\contentsline {subsection}{\numberline {2.4}Emulator }{11}{subsection.2.4}}
\@writefile{toc}{\contentsline {subsubsection}{\numberline {2.4.1}Motivation}{11}{subsubsection.2.4.1}}
\citation{rasmussen06aa}
\@writefile{toc}{\contentsline {subsubsection}{\numberline {2.4.2}Principal components decomposition}{12}{subsubsection.2.4.2}}
\@writefile{toc}{\contentsline {subsubsection}{\numberline {2.4.3}Emulation of PC scores}{12}{subsubsection.2.4.3}}
\citation{Berger01aa}
\citation{Andrianakis12aa}
\citation{Andrianakis12aa}
\newlabel{eq:posterior_mean}{{12}{13}{Emulation of PC scores}{equation.2.12}{}}
\newlabel{eq:posterior_var}{{13}{13}{Emulation of PC scores}{equation.2.12}{}}
\citation{Cressie93aa}
\citation{Pepelychev10aa}
\citation{Gramacy12aa}
\citation{Araya-Melo15aa}
\citation{Williamson14aa}
\newlabel{eq:penlik}{{16}{14}{Emulation of PC scores}{equation.2.15}{}}
\newlabel{sect:rec}{{2.5}{15}{Recombination of PC scores}{subsection.2.5}{}}
\@writefile{toc}{\contentsline {subsection}{\numberline {2.5}Recombination of PC scores }{15}{subsection.2.5}}
\newlabel{eq:pca_mean}{{17}{15}{Recombination of PC scores}{equation.2.17}{}}
\newlabel{eq:pca_var}{{18}{15}{Recombination of PC scores}{equation.2.17}{}}
\newlabel{sect:advantages}{{2.6}{15}{Short discussion of possible advantages over the independent emulator approach}{subsection.2.6}{}}
\@writefile{toc}{\contentsline {subsection}{\numberline {2.6}Short discussion of possible advantages over the independent emulator approach }{15}{subsection.2.6}}
\citation{Laskar04}
\citation{Goosse02aa,Loutre14aa}
\citation{Williamson13ab}
\newlabel{sect:results}{{3}{16}{Results}{section.3}{}}
\@writefile{toc}{\contentsline {section}{\numberline {3}Results }{16}{section.3}}
\newlabel{sect:ic}{{3.1}{16}{Sensitivity to initial conditions}{subsection.3.1}{}}
\@writefile{toc}{\contentsline {subsection}{\numberline {3.1}Sensitivity to initial conditions }{16}{subsection.3.1}}
\citation{brovkin97}
\@writefile{toc}{\contentsline {subsection}{\numberline {3.2}Validation and choice of PC emulator}{17}{subsection.3.2}}
\@writefile{toc}{\contentsline {subsection}{\numberline {3.3}Astronomically-forced variance vs other effects}{19}{subsection.3.3}}
\citation{Zhao07aa}
\@writefile{toc}{\contentsline {subsection}{\numberline {3.4}Grid-point-wise variance analysis}{20}{subsection.3.4}}
\@writefile{toc}{\contentsline {subsection}{\numberline {3.5}Fingerprint analysis}{20}{subsection.3.5}}
\citation{Loutre04}
\citation{braconnot07pmip1}
\citation{Street-Perrott90aa}
\citation{Araya-Melo15aa}
\citation{Brovkin98aa}
\citation{Renssen03aa}
\@writefile{toc}{\contentsline {subsection}{\numberline {3.6}Detection of fast changes}{22}{subsection.3.6}}
\citation{ganopolski98a}
\citation{Yin12aa}
\citation{Yin13aa}
\citation{petit99,siegenthaler05,Luethi08aa}
\citation{Vimeux02aa}
\@writefile{toc}{\contentsline {section}{\numberline {4}Discussion}{23}{section.4}}
\citation{Prokopenko02ab}
\citation{Pollard05aa}
\citation{Crucifix11aa}
\citation{Berger1978139}
\citation{ruddiman07rge}
\citation{Tuenter03aa}
\citation{Bosmans15aa}
\citation{Renssen03aa}
\citation{Brovkin98aa}
\citation{claussen99}
\citation{Kleidon07aa,Dekker10aa}
\citation{brovkin03cc}
\citation{crucifix02aa}
\@writefile{toc}{\contentsline {section}{\numberline {5}Conclusions}{26}{section.5}}
\@writefile{toc}{\contentsline {section}{\numberline {A}Experiment design algorithm}{26}{appendix.A}}
\citation{Oakley02aa}
\newlabel{app:aexp}{{B}{28}{\conclusionname }{appendix.B}{}}
\@writefile{toc}{\contentsline {section}{\numberline {B} Analytical expressions for variance indices }{28}{appendix.B}}
\newlabel{int:A}{{B1}{28}{\conclusionname }{equation.B.1}{}}
\newlabel{int:E}{{B5}{28}{\conclusionname }{equation.B.1}{}}
\newlabel{eq:pc_variance}{{B6}{28}{\conclusionname }{equation.B.6}{}}
\citation{Galassi09aa}
\citation{Homma96aa}
\citation{berger78}
\newlabel{app:mc}{{C}{30}{\conclusionname }{appendix.C}{}}
\@writefile{toc}{\contentsline {section}{\numberline {C}Computation of integrals }{30}{appendix.C}}
\newlabel{eq:int}{{C1}{30}{\conclusionname }{equation.C.1}{}}
\bibstyle{copernicus}
\bibdata{/Users/crucifix/Documents/BibDesk.bib}
\bibcite{Alpert11aa}{{1}{2011}{{Alpert and Sholokhman}}{{}}}
\bibcite{Andrianakis12aa}{{2}{2012}{{Andrianakis and Challenor}}{{}}}
\bibcite{Araya-Melo15aa}{{3}{2015}{{Araya-Melo et~al.}}{{Araya-Melo, Crucifix, and Bounceur}}}
\bibcite{Berger1978139}{{4}{1978{a}}{{Berger}}{{}}}
\bibcite{berger99}{{5}{1999}{{Berger}}{{}}}
\bibcite{berger78}{{6}{1978{b}}{{Berger}}{{}}}
\bibcite{Berger01aa}{{7}{2001}{{Berger et~al.}}{{Berger, De~Oliveira, and Sans{\'o}}}}
\bibcite{Bosmans15aa}{{8}{2015}{{Bosmans et~al.}}{{Bosmans, Hilgen, Tuenter, and Lourens}}}
\bibcite{Braconnot99aa}{{9}{1999}{{Braconnot et~al.}}{{Braconnot, Joussaume, Marti, and de~Noblet}}}
\bibcite{braconnot07pmip1}{{10}{2007}{{Braconnot et~al.}}{{Braconnot, Otto-Bliesner, Harrison, Joussaume, Peterschmitt, Abe-Ouchi, Crucifix, Driesschaert, Fichefet, Hewitt, Kageyama, Kitoh, La{\^\i }n{\'e}, Loutre, Marti, Merkel, Ramstein, Valdes, Weber, Yu, and Zhao}}}
\bibcite{brovkin97}{{11}{1997}{{Brovkin et~al.}}{{Brovkin, Ganopolski, and Shvirezhev}}}
\bibcite{Brovkin98aa}{{12}{1998}{{Brovkin et~al.}}{{Brovkin, Claussen, Petoukhov, and Ganopolski}}}
\bibcite{brovkin03cc}{{13}{2003}{{Brovkin et~al.}}{{Brovkin, Levis, Loutre, Crucifix, Claussen, Ganopolski, Kubatzki, and Petoukhov}}}
\bibcite{Carnell12aa}{{14}{2012}{{Carnell}}{{}}}
\bibcite{Carslaw13aa}{{15}{2013}{{Carslaw et~al.}}{{Carslaw, Lee, Reddington, Pringle, Rap, Forster, Mann, Spracklen, Woodhouse, Regayre, and Pierce}}}
\bibcite{Claussen09aa}{{16}{2009}{{Claussen}}{{}}}
\bibcite{claussen99}{{17}{1999}{{Claussen et~al.}}{{Claussen, Kubatzki, Brovkin, Ganopolski, Hoelzmann, and Pachur}}}
\bibcite{Cressie93aa}{{18}{1993}{{Cressie}}{{}}}
\bibcite{Crucifix11aa}{{19}{2011}{{Crucifix}}{{}}}
\bibcite{crucifix02aa}{{20}{2002}{{Crucifix and Loutre}}{{}}}
\bibcite{Cumming09aa}{{21}{2009}{{Cumming and Goldstein}}{{}}}
\bibcite{noblet96}{{22}{1996}{{de~Noblet et~al.}}{{de~Noblet, Prentice, Joussaume, Texier, Botta, and Haxeltine}}}
\bibcite{Dekker10aa}{{23}{2010}{{Dekker et~al.}}{{Dekker, de~Boer, Brovkin, Fraedrich, Wassen, and Rietkerk}}}
\bibcite{Draguljic12aa}{{24}{2012}{{Dragulji{\'c} et~al.}}{{Dragulji{\'c}, Santner, and Dean}}}
\bibcite{Fricker2013aa}{{25}{2013}{{Fricker et~al.}}{{Fricker, Oakley, and Urban}}}
\bibcite{Galassi09aa}{{26}{2009}{{Gallassi et~al.}}{{}}}
\bibcite{ganopolski98a}{{27}{1998}{{Ganopolski et~al.}}{{Ganopolski, Kubatzki, Claussen, Brovkin, and Petoukhov}}}
\bibcite{Goosse02aa}{{28}{2002}{{Goosse et~al.}}{{Goosse, Renssen, Selten, Haarsma, and Opsteegh}}}
\bibcite{Goosse10aa}{{29}{2010}{{Goosse et~al.}}{{Goosse, Brovkin, Fichefet, Haarsma, Huybrechts, Jongma, Mouchet, Selten, Barriat, Campin, Deleersnijder, Driesschaert, Goelzer, Janssens, Loutre, Morales~Maqueda, Opsteegh, Mathieu, Munhoven, Pettersson, Renssen, Roche, Schaeffer, Tartinville, Timmermann, and Weber}}}
\bibcite{Gramacy12aa}{{30}{2012}{{Gramacy and Lee}}{{}}}
\bibcite{Henrot10aa}{{31}{2010}{{Henrot et~al.}}{{Henrot, Fran\c {c}ois, Favre, Butzin, Ouberdous, and Munhoven}}}
\bibcite{Higdon08aa}{{32}{2008}{{Higdon et~al.}}{{Higdon, Gattiker, Williams, and Rightley}}}
\bibcite{Holden10aa}{{33}{2010}{{Holden et~al.}}{{Holden, Edwards, Oliver, Lenton, and Wilkinson}}}
\bibcite{Homma96aa}{{34}{1996}{{Homma and Saltelli}}{{}}}
\bibcite{Joseph08aa}{{35}{2008}{{Joseph and Hung}}{{}}}
\bibcite{Kageyama04aa}{{36}{2004}{{Kageyama et~al.}}{{Kageyama, Charbit, Ritz, Khodri, and Ramstein}}}
\bibcite{Kleidon07aa}{{37}{2007}{{Kleidon et~al.}}{{Kleidon, Fraedrich, and Low}}}
\bibcite{Laskar04}{{38}{2004}{{Laskar et~al.}}{{Laskar, Robutel, Joutel, Boudin, Gastineau, Correia, and Levrard}}}
\bibcite{Lee11aa}{{39}{2011}{{Lee et~al.}}{{Lee, Carslaw, Pringle, Mann, and Spracklen}}}
\bibcite{Lee13aa}{{40}{2013}{{Lee et~al.}}{{Lee, Pringle, Reddington, Mann, Stier, Spracklen, Pierce, and Carslaw}}}
\bibcite{Loeppky09aa}{{41}{2009}{{Loeppky et~al.}}{{Loeppky, Sacks, and Welch}}}
\bibcite{Loutre93aa}{{42}{1993}{{Loutre}}{{}}}
\bibcite{Loutre04}{{43}{2004}{{Loutre et~al.}}{{Loutre, Paillard, Vimeux, and Cortijo}}}
\bibcite{Loutre14aa}{{44}{2014}{{Loutre et~al.}}{{Loutre, Fichefet, Goosse, Huybrechts, Goelzer, and Capron}}}
\bibcite{Luethi08aa}{{45}{2008}{{Luethi et~al.}}{{Luethi, Le~Floch, Bereiter, Blunier, Barnola, Siegenthaler, Raynaud, Jouzel, Fischer, Kawamura, and Stocker}}}
\bibcite{McKay79aa}{{46}{1979}{{McKay et~al.}}{{McKay, Beckman, and Conover}}}
\bibcite{Meissner03aa}{{47}{2003}{{Meissner et~al.}}{{Meissner, Weaver, Matthews, and Cox}}}
\bibcite{Morris95aa}{{48}{1995}{{Morris and Mitchell}}{{}}}
\bibcite{Oakley02aa}{{49}{2002}{{Oakley and O'Hagan}}{{}}}
\bibcite{Oakley04ab}{{50}{2004}{{Oakley and O'Hagan}}{{}}}
\bibcite{opsteegh98}{{51}{1998}{{Opsteegh et~al.}}{{Opsteegh, Haarsma, Smelten, and Kattenberg}}}
\bibcite{Pepelychev10aa}{{52}{2010}{{Pepelychev}}{{}}}
\bibcite{petit99}{{53}{1999}{{Petit et~al.}}{{Petit, Jouzel, Raynaud, Barkov, Barnola, Basile, Bender, Chappellaz, Davis, Delaygue, Delmotte, Kotlyakov, Legrand, Lipenkov, Lorius, Pepin, Ritz, Saltzman, and Stievenard}}}
\bibcite{Pollard05aa}{{54}{2005}{{Pollard and DeConto}}{{}}}
\bibcite{Prokopenko02ab}{{55}{2002}{{Prokopenko et~al.}}{{Prokopenko, Williams, Kuzmin, Karabanov, Khursevich, and Peck}}}
\bibcite{rasmussen06aa}{{56}{2005}{{Rasmussen and Williams}}{{}}}
\bibcite{Renssen03aa}{{57}{2003}{{Renssen et~al.}}{{Renssen, Brovkin, Fichefet, and Goosse}}}
\bibcite{Rougier08ab}{{58}{2008}{{Rougier}}{{}}}
\bibcite{Rougier09aa}{{59}{2009}{{Rougier et~al.}}{{Rougier, Sexton, Murphy, and Stainforth}}}
\bibcite{ruddiman07rge}{{60}{2007}{{Ruddiman}}{{}}}
\bibcite{Sacks89aa}{{61}{1989}{{Sacks et~al.}}{{Sacks, Welch, Mitchell, and Wynn}}}
\bibcite{Saltelli04aa}{{62}{2004}{{Saltelli et~al.}}{{Saltelli, Tarantola, Campolongo, and Ratto}}}
\bibcite{Goni99aa}{{63}{1999}{{Sanchez-Go\~ni et~al.}}{{Sanchez-Go\~ni, Eynaud, Turon, and Shackleton}}}
\bibcite{santner03}{{64}{2003}{{Santner et~al.}}{{Santner, Williams, and Notz}}}
\bibcite{Schmittner11aa}{{65}{2011}{{Schmittner et~al.}}{{Schmittner, Urban, Shakun, Mahowald, Clark, Bartlein, Mix, and Rosell-Mel{\'e}}}}
\bibcite{siegenthaler05}{{66}{2005}{{Siegenthaler et~al.}}{{Siegenthaler, Stocker, L{\"{u}}thi, Schwander, Stauffer, Raynaud, Barnola, Fisher, Masson-Delmotte, and Jouzel}}}
\bibcite{Silverman96aa}{{67}{1996}{{Silverman}}{{}}}
\bibcite{stein93}{{68}{1993}{{Stein and Alpert}}{{}}}
\bibcite{Street-Perrott90aa}{{69}{1990}{{Street-Perrott et~al.}}{{Street-Perrott, Mitchell, Marchand, and Brunner}}}
\bibcite{Tuenter03aa}{{70}{2003}{{Tuenter et~al.}}{{Tuenter, Weber, Hilgen, and Lourens}}}
\bibcite{Urban10aa}{{71}{2010}{{Urban and Fricker}}{{}}}
\bibcite{vernon2010}{{72}{2010}{{Vernon et~al.}}{{Vernon, Goldstein, and Bower}}}
\bibcite{Vimeux02aa}{{73}{2002}{{Vimeux et~al.}}{{Vimeux, Cuffey, and Jouzel}}}
\bibcite{Wilkinson10aa}{{74}{2010}{{Wilkinson}}{{}}}
\bibcite{Williamson13ab}{{75}{2013}{{Williamson et~al.}}{{Williamson, Goldstein, Allison, Blaker, Challenor, Jackson, and Yamazaki}}}
\bibcite{Williamson14aa}{{76}{2014}{{Williamson et~al.}}{{Williamson, Blaker, Hampton, and Salter}}}
\bibcite{Wohlfahrt06mh}{{77}{2004}{{Wohlfahrt et~al.}}{{Wohlfahrt, Harrison, and Braconnot}}}
\bibcite{Yin13aa}{{78}{2013}{{Yin}}{{}}}
\bibcite{Yin12aa}{{79}{2012}{{Yin and Berger}}{{}}}
\bibcite{Zhao07aa}{{80}{2007}{{Zhao et~al.}}{{Zhao, Braconnot, Harrison, Yiou, and Marti}}}
\gdef\@numfigure{}
\@writefile{lof}{\contentsline {figure}{\numberline {1}{\ignorespaces  Two dimensional projections of the experimental design. The experiment marked in red (experiment 20) was discarded from the analysis. \relax }}{39}{figure.caption.3}}
\providecommand*\caption@xref[2]{\@setref\relax\@undefined{#1}}
\newlabel{fig:design}{{1}{39}{Two dimensional projections of the experimental design. The experiment marked in red (experiment 20) was discarded from the analysis. \relax }{figure.caption.3}{}}
\@writefile{lof}{\contentsline {figure}{\numberline {2}{\ignorespaces  Slow oscillations developing in experiment 20 ($e=0.040$, $\varpi =334.6{\degree  }$, $\varepsilon =22{\degree  }$). The surface annual temperature over one of the North Atlantic grid points is shown (inset, in $\degree  $ C) along with the geographic distribution of the difference between the warm and the cold phases. The horizontal red line in the inset is the emulator prediction, calibrated on the 26 remaining experiments. \relax }}{40}{figure.caption.4}}
\newlabel{fig:exp20}{{2}{40}{Slow oscillations developing in experiment 20 ($e=0.040$, $\varpi =334.6{\degree }$, $\varepsilon =22{\degree }$). The surface annual temperature over one of the North Atlantic grid points is shown (inset, in $\degree $ C) along with the geographic distribution of the difference between the warm and the cold phases. The horizontal red line in the inset is the emulator prediction, calibrated on the 26 remaining experiments. \relax }{figure.caption.4}{}}
\@writefile{lof}{\contentsline {figure}{\numberline {3}{\ignorespaces  PCA~decomposition of the logarithm of annual precipitation, GDD and annual temperature fields based on the experiment design. Shown are the cumulated normalised variances resolved by the principal components (red) and the remaining variance (blue), which is modelled as white noise in \textup  {\hbox {\mathsurround \z@ \normalfont  (\ignorespaces \ref  {eq:pca_var}\unskip \@@italiccorr )}}, as a~function of $\ell $. Quantities are grid-cell averages. \relax }}{41}{figure.caption.5}}
\newlabel{fig:pca}{{3}{41}{PCA~decomposition of the logarithm of annual precipitation, GDD and annual temperature fields based on the experiment design. Shown are the cumulated normalised variances resolved by the principal components (red) and the remaining variance (blue), which is modelled as white noise in \eqref {eq:pca_var}, as a~function of $\ell $. Quantities are grid-cell averages. \relax }{figure.caption.5}{}}
\@writefile{lof}{\contentsline {figure}{\numberline {4}{\ignorespaces  Gaussian process parameters maximising the penalised log-likelihood for three variables : GDD, log(Annual Precipitation) and Annual temperature, either \textit  {(black)} optimised for each PC independently or \textit  {(blue)} optimised based on the product of the likelihoods of the first 10 PCs, assuming that the same correlation parameters are used on all PCs. The maximized log-likelihood associated with each PC is given for reference. \relax }}{42}{figure.caption.6}}
\newlabel{fig:lambdanu}{{4}{42}{Gaussian process parameters maximising the penalised log-likelihood for three variables : GDD, log(Annual Precipitation) and Annual temperature, either \textit {(black)} optimised for each PC independently or \textit {(blue)} optimised based on the product of the likelihoods of the first 10 PCs, assuming that the same correlation parameters are used on all PCs. The maximized log-likelihood associated with each PC is given for reference. \relax }{figure.caption.6}{}}
\@writefile{lof}{\contentsline {figure}{\numberline {5}{\ignorespaces  Evaluation of the PC emulators. The bars give the fraction of grid points for which the emulation correctly predicts the value of the experiment left out of the training set, within the 66th, 95th and 99th inner quantiles of the distribution. The horizontal lines indicate the theoretical position of the percentiles for well-calibrated emulators. Dots provide root mean squares of the differences between predicted and actual values. The graphical layout is adapted from the recommendation of the ``Modelling Uncertainty in Computer Model" project, \url  {http://mucm.aston.ac.uk/MUCM/MUCMToolkit/index.php?page=ExamMultipleOutputsPCA.html}. \relax }}{43}{figure.caption.7}}
\newlabel{fig:barplot}{{5}{43}{Evaluation of the PC emulators. The bars give the fraction of grid points for which the emulation correctly predicts the value of the experiment left out of the training set, within the 66th, 95th and 99th inner quantiles of the distribution. The horizontal lines indicate the theoretical position of the percentiles for well-calibrated emulators. Dots provide root mean squares of the differences between predicted and actual values. The graphical layout is adapted from the recommendation of the ``Modelling Uncertainty in Computer Model" project, \url {http://mucm.aston.ac.uk/MUCM/MUCMToolkit/index.php?page=ExamMultipleOutputsPCA.html}. \relax }{figure.caption.7}{}}
\@writefile{lof}{\contentsline {figure}{\numberline {6}{\ignorespaces  Total variances associated to inputs ($V$), averaged over all grid points. These variances are then compared to different elements of variances associated with the PC emulator, namely : variance of the discarded principal components, error estimated from Monte-Carlo sampling (estimated by comparison with analytical integrals), Gaussian Process variance ($\Sigma _{tot}$), difference in variance associated with the choice of correlation parameters (constant for all PC, or PC-dependent), or the choice of emulator (PC emulator vs independent emulators), difference due to the choice of initial conditions (exp. 20 excluded), and synergy term defined as $V-T_{\{e\varpi \}}-T_{\varepsilon }$. \relax }}{44}{figure.caption.8}}
\newlabel{fig:variance}{{6}{44}{Total variances associated to inputs ($V$), averaged over all grid points. These variances are then compared to different elements of variances associated with the PC emulator, namely : variance of the discarded principal components, error estimated from Monte-Carlo sampling (estimated by comparison with analytical integrals), Gaussian Process variance ($\Sigma _{tot}$), difference in variance associated with the choice of correlation parameters (constant for all PC, or PC-dependent), or the choice of emulator (PC emulator vs independent emulators), difference due to the choice of initial conditions (exp. 20 excluded), and synergy term defined as $V-T_{\{e\varpi \}}-T_{\varepsilon }$. \relax }{figure.caption.8}{}}
\@writefile{lof}{\contentsline {figure}{\numberline {7}{\ignorespaces  Geographical distribution of total variance $V$, split into contributions from precession $T_{\{\varpi \}}$ and obliquity $T_{\varepsilon }$.\relax }}{45}{figure.caption.9}}
\newlabel{fig:sa}{{7}{45}{Geographical distribution of total variance $V$, split into contributions from precession $T_{\{\varpi \}}$ and obliquity $T_{\varepsilon }$.\relax }{figure.caption.9}{}}
\@writefile{lof}{\contentsline {figure}{\numberline {8}{\ignorespaces  First eigenvectors of $T_{\{e\varpi \}}$ and obliquity $T_{\varepsilon }$ for annual precipitation (log) and annual surface temperature, along with the fraction of the explained variance by these eigenvectors. These eigenvectors are referred to here as the fingerprints. \relax }}{46}{figure.caption.10}}
\newlabel{fig:fingerprint}{{8}{46}{First eigenvectors of $T_{\{e\varpi \}}$ and obliquity $T_{\varepsilon }$ for annual precipitation (log) and annual surface temperature, along with the fraction of the explained variance by these eigenvectors. These eigenvectors are referred to here as the fingerprints. \relax }{figure.caption.10}{}}
\@writefile{lof}{\contentsline {figure}{\numberline {9}{\ignorespaces  Emulated annual precipitation for three locations at the North Atlantic / African sector, as a~function of the longitude of the perihelion. For ease of interpretation, the longitude of the perihelion is denoted as the time of the year at which perihelion (closest point to the Sun) is reached. \relax }}{47}{figure.caption.11}}
\newlabel{fig:african_precip}{{9}{47}{Emulated annual precipitation for three locations at the North Atlantic / African sector, as a~function of the longitude of the perihelion. For ease of interpretation, the longitude of the perihelion is denoted as the time of the year at which perihelion (closest point to the Sun) is reached. \relax }{figure.caption.11}{}}
\@writefile{lof}{\contentsline {figure}{\numberline {10}{\ignorespaces  Maximum rate of change, in units per thousand years, estimated using the PC emulator and assuming a~quasi-stationary climate and interglacial conditions.  \relax }}{48}{figure.caption.12}}
\newlabel{fig:rate}{{10}{48}{Maximum rate of change, in units per thousand years, estimated using the PC emulator and assuming a~quasi-stationary climate and interglacial conditions.  \relax }{figure.caption.12}{}}
\newlabel{LastPage}{{}{48}{}{}{}}
