\relax 
\providecommand\hyper@newdestlabel[2]{}
\providecommand\HyperFirstAtBeginDocument{\AtBeginDocument}
\HyperFirstAtBeginDocument{\ifx\hyper@anchor\@undefined
\global\let\oldcontentsline\contentsline
\gdef\contentsline#1#2#3#4{\oldcontentsline{#1}{#2}{#3}}
\global\let\oldnewlabel\newlabel
\gdef\newlabel#1#2{\newlabelxx{#1}#2}
\gdef\newlabelxx#1#2#3#4#5#6{\oldnewlabel{#1}{{#2}{#3}}}
\AtEndDocument{\ifx\hyper@anchor\@undefined
\let\contentsline\oldcontentsline
\let\newlabel\oldnewlabel
\fi}
\fi}
\global\let\hyper@last\relax 
\gdef\HyperFirstAtBeginDocument#1{#1}
\providecommand\HyField@AuxAddToFields[1]{}
\providecommand\HyField@AuxAddToCoFields[2]{}
\select@language{english}
\@writefile{toc}{\select@language{english}}
\@writefile{lof}{\select@language{english}}
\@writefile{lot}{\select@language{english}}
\@writefile{lof}{\contentsline {figure}{\numberline {1}{\ignorespaces  Difference in annual mean temperature associated with the different initial conditions, along with the root-mean-square of the difference. \relax }}{3}{figure.caption.2}}
\@writefile{lof}{\contentsline {figure}{\numberline {2}{\ignorespaces  First three principal components of the climate variables. Numbers in the bottom left are the total variance indices ($T_i / V $), expressed in percentage, of the respective eigenvector scores with respect to precession ($P$) and obliquity ($O$). Note that the sum may may exceed 100 \% as a consequence of second order terms. Observe however that these second order terms are small for the first two principal components.  \relax }}{4}{figure.caption.3}}
\providecommand*\caption@xref[2]{\@setref\relax\@undefined{#1}}
\newlabel{fig:pc}{{2}{4}{First three principal components of the climate variables. Numbers in the bottom left are the total variance indices ($T_i / V $), expressed in percentage, of the respective eigenvector scores with respect to precession ($P$) and obliquity ($O$). Note that the sum may may exceed 100 \% as a consequence of second order terms. Observe however that these second order terms are small for the first two principal components.  \relax }{figure.caption.3}{}}
\@writefile{lof}{\contentsline {figure}{\numberline {3}{\ignorespaces Global sensitivity indices (square roots of variances) associated with precession and obliquity. \textit  {Analytical integrals} assuming a uniform distribution in the design cube, estimated using the PC emulator \relax }}{5}{figure.caption.4}}
\@writefile{lof}{\contentsline {figure}{\numberline {4}{\ignorespaces Same as above, but using independent emulators calibrated for all 2048 grid points. The scientific conclusions will be unchanged. \relax }}{6}{figure.caption.5}}
\newlabel{LastPage}{{}{6}{}{}{}}
