\relax 
\providecommand\zref@newlabel[2]{}
\@writefile{toc}{\contentsline {section}{\numberline {1}Response to anomymous reviewer \#2}{1}}
\@writefile{toc}{\contentsline {section}{\numberline {2}Specific comments}{3}}
\@writefile{lof}{\contentsline {figure}{\numberline {1}{\ignorespaces Slow oscillations developing in experiment 20 ($e=0.040$, $\varpi =334.6^\circ $, $\varepsilon =22^\circ $). The surface annual temperature over one of the North Atlantic grid points is shown (inset) along with the geographic distribution of the difference between the warm and the cold phases. The horizontal red line in the inset is the emulator prediction. }}{10}}
\newlabel{fig:exp20}{{1}{10}}
