\relax 
\providecommand\zref@newlabel[2]{}
\@writefile{toc}{\contentsline {section}{\numberline {1}Response to anonymous reviewer \#1}{1}}
\@writefile{toc}{\contentsline {section}{\numberline {2}Specific major comments}{1}}
\@writefile{toc}{\contentsline {section}{\numberline {3}Specific minor comments}{6}}
